<?xml version="1.0" encoding="UTF-8" standalone="no"?>
<svg
   xmlns:dc="http://purl.org/dc/elements/1.1/"
   xmlns:cc="http://creativecommons.org/ns#"
   xmlns:rdf="http://www.w3.org/1999/02/22-rdf-syntax-ns#"
   xmlns:svg="http://www.w3.org/2000/svg"
   xmlns="http://www.w3.org/2000/svg"
   xmlns:sodipodi="http://sodipodi.sourceforge.net/DTD/sodipodi-0.dtd"
   xmlns:inkscape="http://www.inkscape.org/namespaces/inkscape"
   id="Слой_1"
   data-name="Слой 1"
   viewBox="0 0 220 88"
   version="1.1"
   sodipodi:docname="teardrop_sizes.svg"
   inkscape:version="1.0.2-2 (e86c870879, 2021-01-15)"
   width="220"
   height="88"
   inkscape:export-filename="E:\kicad-launchpad\teardrop\bitmaps_png\png\teardrop_sizes.png"
   inkscape:export-xdpi="96"
   inkscape:export-ydpi="96">
  <sodipodi:namedview
     pagecolor="#ffffff"
     bordercolor="#666666"
     borderopacity="1"
     objecttolerance="10"
     gridtolerance="10"
     guidetolerance="10"
     inkscape:pageopacity="0"
     inkscape:pageshadow="2"
     inkscape:window-width="1540"
     inkscape:window-height="1040"
     id="namedview30"
     showgrid="true"
     inkscape:zoom="3.1454546"
     inkscape:cx="114.54299"
     inkscape:cy="85.991796"
     inkscape:window-x="306"
     inkscape:window-y="0"
     inkscape:window-maximized="0"
     inkscape:document-rotation="0"
     inkscape:current-layer="Слой_1">
    <inkscape:grid
       type="xygrid"
       id="grid_kicad"
       spacingx="0.5"
       spacingy="0.5"
       color="#9999ff"
       opacity="0.13"
       empspacing="2" />
  </sodipodi:namedview>
  <metadata
     id="metadata43">
    <rdf:RDF>
      <cc:Work
         rdf:about="">
        <cc:license
           rdf:resource="http://creativecommons.org/licenses/by-sa/4.0/" />
        <dc:format>image/svg+xml</dc:format>
        <dc:type
           rdf:resource="http://purl.org/dc/dcmitype/StillImage" />
        <dc:title>add_arc</dc:title>
      </cc:Work>
      <cc:License
         rdf:about="http://creativecommons.org/licenses/by-sa/4.0/">
        <cc:permits
           rdf:resource="http://creativecommons.org/ns#Reproduction" />
        <cc:permits
           rdf:resource="http://creativecommons.org/ns#Distribution" />
        <cc:requires
           rdf:resource="http://creativecommons.org/ns#Notice" />
        <cc:requires
           rdf:resource="http://creativecommons.org/ns#Attribution" />
        <cc:permits
           rdf:resource="http://creativecommons.org/ns#DerivativeWorks" />
        <cc:requires
           rdf:resource="http://creativecommons.org/ns#ShareAlike" />
      </cc:License>
    </rdf:RDF>
  </metadata>
  <defs
     id="defs115772">
    <marker
       style="overflow:visible"
       id="Arrow1Send"
       refX="0"
       refY="0"
       orient="auto"
       inkscape:stockid="Arrow1Send"
       inkscape:isstock="true">
      <path
         transform="matrix(-0.2,0,0,-0.2,-1.2,0)"
         style="fill:#0000ea;fill-opacity:1;fill-rule:evenodd;stroke:#0000ea;stroke-width:1pt;stroke-opacity:1"
         d="M 0,0 5,-5 -12.5,0 5,5 Z"
         id="path863" />
    </marker>
    <marker
       style="overflow:visible"
       id="marker2082"
       refX="0"
       refY="0"
       orient="auto"
       inkscape:stockid="Arrow2Mend"
       inkscape:isstock="true">
      <path
         transform="scale(-0.6)"
         d="M 8.7185878,4.0337352 -2.2072895,0.01601326 8.7185884,-4.0017078 c -1.7454984,2.3720609 -1.7354408,5.6174519 -6e-7,8.035443 z"
         style="fill:#000000;fill-opacity:1;fill-rule:evenodd;stroke:#000000;stroke-width:0.625;stroke-linejoin:round;stroke-opacity:1"
         id="path2080" />
    </marker>
    <marker
       style="overflow:visible"
       id="marker1866"
       refX="0"
       refY="0"
       orient="auto"
       inkscape:stockid="Arrow2Mstart"
       inkscape:isstock="true">
      <path
         transform="scale(0.6)"
         d="M 8.7185878,4.0337352 -2.2072895,0.01601326 8.7185884,-4.0017078 c -1.7454984,2.3720609 -1.7354408,5.6174519 -6e-7,8.035443 z"
         style="fill:#000000;fill-opacity:1;fill-rule:evenodd;stroke:#000000;stroke-width:0.625;stroke-linejoin:round;stroke-opacity:1"
         id="path1864" />
    </marker>
    <marker
       style="overflow:visible"
       id="Arrow1Lend"
       refX="0"
       refY="0"
       orient="auto"
       inkscape:stockid="Arrow1Lend"
       inkscape:isstock="true">
      <path
         transform="matrix(-0.8,0,0,-0.8,-10,0)"
         style="fill:#000000;fill-opacity:1;fill-rule:evenodd;stroke:#000000;stroke-width:1pt;stroke-opacity:1"
         d="M 0,0 5,-5 -12.5,0 5,5 Z"
         id="path851" />
    </marker>
    <marker
       style="overflow:visible"
       id="Tail"
       refX="0"
       refY="0"
       orient="auto"
       inkscape:stockid="Tail"
       inkscape:isstock="true">
      <g
         transform="scale(-1.2)"
         id="g896"
         style="fill:#000000;fill-opacity:1;stroke:#000000;stroke-opacity:1">
        <path
           style="fill:#000000;fill-opacity:1;fill-rule:evenodd;stroke:#000000;stroke-width:0.8;stroke-linecap:round;stroke-opacity:1"
           d="M -3.8048674,-3.9585227 0.54352094,0"
           id="path884" />
        <path
           style="fill:#000000;fill-opacity:1;fill-rule:evenodd;stroke:#000000;stroke-width:0.8;stroke-linecap:round;stroke-opacity:1"
           d="M -1.2866832,-3.9585227 3.0617053,0"
           id="path886" />
        <path
           style="fill:#000000;fill-opacity:1;fill-rule:evenodd;stroke:#000000;stroke-width:0.8;stroke-linecap:round;stroke-opacity:1"
           d="M 1.3053582,-3.9585227 5.6537466,0"
           id="path888" />
        <path
           style="fill:#000000;fill-opacity:1;fill-rule:evenodd;stroke:#000000;stroke-width:0.8;stroke-linecap:round;stroke-opacity:1"
           d="M -3.8048674,4.1775838 0.54352094,0.21974226"
           id="path890" />
        <path
           style="fill:#000000;fill-opacity:1;fill-rule:evenodd;stroke:#000000;stroke-width:0.8;stroke-linecap:round;stroke-opacity:1"
           d="M -1.2866832,4.1775838 3.0617053,0.21974226"
           id="path892" />
        <path
           style="fill:#000000;fill-opacity:1;fill-rule:evenodd;stroke:#000000;stroke-width:0.8;stroke-linecap:round;stroke-opacity:1"
           d="M 1.3053582,4.1775838 5.6537466,0.21974226"
           id="path894" />
      </g>
    </marker>
    <marker
       style="overflow:visible"
       id="Arrow2Mend"
       refX="0"
       refY="0"
       orient="auto"
       inkscape:stockid="Arrow2Mend"
       inkscape:isstock="true">
      <path
         transform="scale(-0.6)"
         d="M 8.7185878,4.0337352 -2.2072895,0.01601326 8.7185884,-4.0017078 c -1.7454984,2.3720609 -1.7354408,5.6174519 -6e-7,8.035443 z"
         style="fill:#000000;fill-opacity:1;fill-rule:evenodd;stroke:#000000;stroke-width:0.625;stroke-linejoin:round;stroke-opacity:1"
         id="path875" />
    </marker>
    <marker
       style="overflow:visible"
       id="Arrow2Sstart"
       refX="0"
       refY="0"
       orient="auto"
       inkscape:stockid="Arrow2Sstart"
       inkscape:isstock="true">
      <path
         transform="matrix(0.3,0,0,0.3,-0.69,0)"
         d="M 8.7185878,4.0337352 -2.2072895,0.01601326 8.7185884,-4.0017078 c -1.7454984,2.3720609 -1.7354408,5.6174519 -6e-7,8.035443 z"
         style="fill:#000000;fill-opacity:1;fill-rule:evenodd;stroke:#000000;stroke-width:0.625;stroke-linejoin:round;stroke-opacity:1"
         id="path878" />
    </marker>
    <marker
       style="overflow:visible"
       id="Arrow1Sstart"
       refX="0"
       refY="0"
       orient="auto"
       inkscape:stockid="Arrow1Sstart"
       inkscape:isstock="true">
      <path
         transform="matrix(0.2,0,0,0.2,1.2,0)"
         style="fill:#0000ea;fill-opacity:1;fill-rule:evenodd;stroke:#0000ea;stroke-width:1pt;stroke-opacity:1"
         d="M 0,0 5,-5 -12.5,0 5,5 Z"
         id="path860" />
    </marker>
    <marker
       style="overflow:visible"
       id="Arrow1Mstart"
       refX="0"
       refY="0"
       orient="auto"
       inkscape:stockid="Arrow1Mstart"
       inkscape:isstock="true">
      <path
         transform="matrix(0.4,0,0,0.4,4,0)"
         style="fill:#000000;fill-opacity:1;fill-rule:evenodd;stroke:#000000;stroke-width:1pt;stroke-opacity:1"
         d="M 0,0 5,-5 -12.5,0 5,5 Z"
         id="path854" />
    </marker>
    <marker
       style="overflow:visible"
       id="Arrow1Lstart"
       refX="0"
       refY="0"
       orient="auto"
       inkscape:stockid="Arrow1Lstart"
       inkscape:isstock="true">
      <path
         transform="matrix(0.8,0,0,0.8,10,0)"
         style="fill:#000000;fill-opacity:1;fill-rule:evenodd;stroke:#000000;stroke-width:1pt;stroke-opacity:1"
         d="M 0,0 5,-5 -12.5,0 5,5 Z"
         id="path848" />
    </marker>
    <style
       id="style115770">.cls-1{fill:#f29100;}.cls-2{fill:#b9b9b9;}</style>
    <marker
       style="overflow:visible"
       id="Arrow1Sstart-8"
       refX="0"
       refY="0"
       orient="auto"
       inkscape:stockid="Arrow1Sstart"
       inkscape:isstock="true">
      <path
         transform="matrix(0.2,0,0,0.2,1.2,0)"
         style="fill:#0000ea;fill-opacity:1;fill-rule:evenodd;stroke:#0000ea;stroke-width:1pt;stroke-opacity:1"
         d="M 0,0 5,-5 -12.5,0 5,5 Z"
         id="path860-9" />
    </marker>
    <marker
       style="overflow:visible"
       id="Arrow1Send-0"
       refX="0"
       refY="0"
       orient="auto"
       inkscape:stockid="Arrow1Send"
       inkscape:isstock="true">
      <path
         transform="matrix(-0.2,0,0,-0.2,-1.2,0)"
         style="fill:#0000ea;fill-opacity:1;fill-rule:evenodd;stroke:#0000ea;stroke-width:1pt;stroke-opacity:1"
         d="M 0,0 5,-5 -12.5,0 5,5 Z"
         id="path863-8" />
    </marker>
  </defs>
  <title
     id="title115774">add_via</title>
  <path
     style="fill:#a10000;fill-opacity:1;stroke:#a10000;stroke-width:8.66228px;stroke-linecap:round;stroke-linejoin:miter;stroke-opacity:1"
     d="m 95,36.673727 h 44"
     id="path2800" />
  <path
     style="fill:#84bb00;fill-opacity:1;stroke:#000000;stroke-width:0;stroke-linecap:butt;stroke-linejoin:miter;stroke-miterlimit:4;stroke-dasharray:none;stroke-opacity:1"
     d="m 66,17.5 40,14.834766 V 41 L 66,55.5"
     id="path15"
     sodipodi:nodetypes="cccc" />
  <g
     id="g13"
     transform="matrix(3.4281308,0,0,3.4106992,10.488631,-4.4654968)">
    <circle
       class="cls-1"
       cx="12"
       cy="12"
       r="7"
       id="circle115776" />
    <circle
       class="cls-2"
       cx="12"
       cy="12"
       id="circle115778"
       style="fill:#ffffff;fill-opacity:1;stroke-width:1"
       r="3" />
  </g>
  <path
     style="fill:#0000cb;fill-opacity:1;stroke:#0000ea;stroke-width:0.910071;stroke-linecap:round;stroke-linejoin:miter;stroke-miterlimit:3;stroke-dasharray:none;stroke-opacity:1"
     d="M 51.233231,12.798833 H 17.380055 v 0"
     id="path842" />
  <path
     style="fill:none;stroke:#0000ea;stroke-width:0.910071;stroke-linecap:round;stroke-linejoin:miter;stroke-miterlimit:4;stroke-dasharray:none;stroke-opacity:1"
     d="M 51.233231,60.548622 H 17.380055"
     id="path844" />
  <path
     style="fill:none;stroke:#0000ea;stroke-width:0.896951;stroke-linecap:butt;stroke-linejoin:miter;stroke-miterlimit:4;stroke-dasharray:none;stroke-opacity:1;marker-start:url(#Arrow1Sstart);marker-end:url(#Arrow1Send)"
     d="M 20.380055,14.298833 V 58.759999"
     id="path2066" />
  <text
     xml:space="preserve"
     style="font-size:24.7884px;line-height:1.25;font-family:sans-serif;letter-spacing:0px;word-spacing:0px;fill:#0000ea;fill-opacity:1;stroke:#0000d8;stroke-width:0.380903;stroke-miterlimit:4;stroke-dasharray:none;stroke-opacity:1"
     x="3.3195524"
     y="50.654839"
     id="text2758"
     transform="scale(1.0520519,0.95052344)"><tspan
       sodipodi:role="line"
       id="tspan2756"
       x="3.3195524"
       y="50.654839"
       style="font-size:24.7884px;fill:#0000ea;fill-opacity:1;stroke:#0000d8;stroke-width:0.380903;stroke-miterlimit:4;stroke-dasharray:none;stroke-opacity:1">d</tspan></text>
  <path
     style="fill:none;stroke:#0000e6;stroke-width:1.02433;stroke-linecap:round;stroke-linejoin:miter;stroke-miterlimit:3;stroke-dasharray:none;stroke-opacity:1"
     d="M 146.62611,18 C 120.08407,18 93.542037,18 67,18"
     id="path842-2"
     sodipodi:nodetypes="cc" />
  <path
     style="fill:#0000ea;fill-opacity:1;stroke:#0000ea;stroke-width:1.03271;stroke-linecap:round;stroke-linejoin:miter;stroke-miterlimit:3;stroke-dasharray:none;stroke-opacity:1"
     d="M 148,56 H 65.659821 v 0"
     id="path842-2-5" />
  <text
     xml:space="preserve"
     style="font-size:18.3391px;line-height:1.25;font-family:sans-serif;letter-spacing:0px;word-spacing:0px;fill:#0000ef;fill-opacity:1;stroke:#0000d8;stroke-width:0.375739;stroke-linecap:round;stroke-miterlimit:4;stroke-dasharray:none;stroke-opacity:1"
     x="144.81419"
     y="44.88063"
     id="text2804"
     transform="scale(1.0273491,0.97337897)"><tspan
       sodipodi:role="line"
       id="tspan2802"
       x="144.81419"
       y="44.88063"
       style="font-size:18.3391px;fill:#0000ef;fill-opacity:1;stroke:#0000d8;stroke-width:0.375739;stroke-linecap:round;stroke-miterlimit:4;stroke-dasharray:none;stroke-opacity:1">Height</tspan></text>
  <text
     xml:space="preserve"
     style="font-size:18.1335px;line-height:1.25;font-family:sans-serif;letter-spacing:0px;word-spacing:0px;fill:#a10000;fill-opacity:1;stroke:#a10000;stroke-width:0.371526;stroke-miterlimit:4;stroke-dasharray:none;stroke-opacity:1"
     x="55.345146"
     y="88.484619"
     id="text2808"
     transform="scale(1.0779659,0.92767313)"><tspan
       sodipodi:role="line"
       id="tspan2806"
       x="55.345146"
       y="88.484619"
       style="font-size:18.1335px;fill:#a10000;fill-opacity:1;stroke:#a10000;stroke-width:0.371526;stroke-miterlimit:4;stroke-dasharray:none;stroke-opacity:1">Lenght</tspan></text>
  <path
     style="fill:none;stroke:#9e0000;stroke-width:0.785628;stroke-linecap:round;stroke-linejoin:miter;stroke-miterlimit:4;stroke-dasharray:none;stroke-opacity:1"
     d="m 76,36 v 30.677512 0"
     id="path2810" />
  <path
     style="fill:none;stroke:#a10000;stroke-width:0.795237;stroke-linecap:round;stroke-linejoin:miter;stroke-miterlimit:4;stroke-dasharray:none;stroke-opacity:1"
     d="M 106,36 V 66.003785"
     id="path2812" />
  <path
     style="fill:none;stroke:#0000ea;stroke-width:0.806106;stroke-linecap:butt;stroke-linejoin:miter;stroke-miterlimit:4;stroke-dasharray:none;stroke-opacity:1;marker-start:url(#Arrow1Sstart-8);marker-end:url(#Arrow1Send-0)"
     d="M 144,19.089058 V 55"
     id="path2066-3" />
</svg>
